Session 3: Data Processing
…
---
# Load and show a dataset

We can just show our dataset using the name of the object; in this case, `census`. 

```r
whr15
```

```
## # A tibble: 158 x 12
##    country region happiness_rank happiness_score standard_error economy_gdp_per~
##    <chr>   <chr>           <dbl>           <dbl>          <dbl>            <dbl>
##  1 Switze~ Weste~              1            7.59         0.0341             1.40
##  2 Iceland Weste~              2            7.56         0.0488             1.30
##  3 Denmark Weste~              3            7.53         0.0333             1.33
##  4 Norway  Weste~              4            7.52         0.0388             1.46
##  5 Canada  North~              5            7.43         0.0355             1.33
##  6 Finland Weste~              6            7.41         0.0314             1.29
##  7 Nether~ Weste~              7            7.38         0.0280             1.33
##  8 Sweden  Weste~              8            7.36         0.0316             1.33
##  9 New Ze~ Austr~              9            7.29         0.0337             1.25
## 10 Austra~ Austr~             10            7.28         0.0408             1.33
## # ... with 148 more rows, and 6 more variables: family <dbl>,
## #   health_life_expectancy <dbl>, freedom <dbl>,
## #   trust_government_corruption <dbl>, generosity <dbl>,
## #   dystopia_residual <dbl>
```
…
You can also use `slice_head` and `slice_tail` to select the first or last rows respectively. Or `slice_sample` to randomly draw n rows.

]

.panel[.panel-name[Select]

`Select`: allows you to specific columns.

```r
whr15 %>% 
  select(region, country, happiness_rank)
```

```
## # A tibble: 158 x 3
##    region                    country     happiness_rank
##    <chr>                     <chr>                <dbl>
##  1 Western Europe            Switzerland              1
##  2 Western Europe            Iceland                  2
##  3 Western Europe            Denmark                  3
##  4 Western Europe            Norway                   4
##  5 North America             Canada                   5
##  6 Western Europe            Finland                  6
##  7 Western Europe            Netherlands              7
##  8 Western Europe            Sweden                   8
##  9 Australia and New Zealand New Zealand              9
## 10 Australia and New Zealand Australia               10
## # ... with 148 more rows
```
…
# Appending and merging data sets

---

# Appending and merging data sets

Let's create a panel with the three dataframes. We can use the `bind_rows` function: 

```r
bind_rows(whr15, whr16, whr17)
```

```
## # A tibble: 470 x 17
##    country region happiness_rank happiness_score standard_error economy_gdp_per~
##    <chr>   <chr>           <dbl>           <dbl>          <dbl>            <dbl>
##  1 Switze~ Weste~              1            7.59         0.0341             1.40
##  2 Iceland Weste~              2            7.56         0.0488             1.30
##  3 Denmark Weste~              3            7.53         0.0333             1.33
##  4 Norway  Weste~              4            7.52         0.0388             1.46
##  5 Canada  North~              5            7.43         0.0355             1.33
##  6 Finland Weste~              6            7.41         0.0314             1.29
##  7 Nether~ Weste~              7            7.38         0.0280             1.33
##  8 Sweden  Weste~              8            7.36         0.0316             1.33
##  9 New Ze~ Austr~              9            7.29         0.0337             1.25
## 10 Austra~ Austr~             10            7.28         0.0408             1.33
## # ... with 460 more rows, and 11 more variables: family <dbl>,
## #   health_life_expectancy <dbl>, freedom <dbl>,
## #   trust_government_corruption <dbl>, generosity <dbl>,
## #   dystopia_residual <dbl>, year <dbl>, lower_confidence_interval <dbl>,
## #   upper_confidence_interval <dbl>, whisker_high <dbl>, whisker_low <dbl>
```
…
