Session 3: Data Wrangling
…
* `glimpse()`: get a glimpse of your data.

---

# Load and show a dataset

We can just show our dataset using the name of the object; in this case, `whr15`. 

```r
whr15
```

```
## # A tibble: 158 × 12
##    country region happi…¹ happi…² stand…³ econo…⁴ family healt…⁵ freedom trust…⁶
##    <chr>   <chr>    <dbl>   <dbl>   <dbl>   <dbl>  <dbl>   <dbl>   <dbl>   <dbl>
##  1 Switze… Weste…       1    7.59  0.0341    1.40   1.35   0.941   0.666   0.420
##  2 Iceland Weste…       2    7.56  0.0488    1.30   1.40   0.948   0.629   0.141
##  3 Denmark Weste…       3    7.53  0.0333    1.33   1.36   0.875   0.649   0.484
##  4 Norway  Weste…       4    7.52  0.0388    1.46   1.33   0.885   0.670   0.365
##  5 Canada  North…       5    7.43  0.0355    1.33   1.32   0.906   0.633   0.330
##  6 Finland Weste…       6    7.41  0.0314    1.29   1.32   0.889   0.642   0.414
##  7 Nether… Weste…       7    7.38  0.0280    1.33   1.28   0.893   0.616   0.318
##  8 Sweden  Weste…       8    7.36  0.0316    1.33   1.29   0.911   0.660   0.438
##  9 New Ze… Austr…       9    7.29  0.0337    1.25   1.32   0.908   0.639   0.429
## 10 Austra… Austr…      10    7.28  0.0408    1.33   1.31   0.932   0.651   0.356
## # … with 148 more rows, 2 more variables: generosity <dbl>,
## #   dystopia_residual <dbl>, and abbreviated variable names ¹​happiness_rank,
## #   ²​happiness_score, ³​standard_error, ⁴​economy_gdp_per_capita,
## #   ⁵​health_life_expectancy, ⁶​trust_government_corruption
```
…
]

---

# dplyr::filter

- The `filter` function is used to subset rows in a dataset. 

```r
whr15 %>% filter(region == "Western Europe")
```

```
## # A tibble: 21 × 12
##    country region happi…¹ happi…² stand…³ econo…⁴ family healt…⁵ freedom trust…⁶
##    <chr>   <chr>    <dbl>   <dbl>   <dbl>   <dbl>  <dbl>   <dbl>   <dbl>   <dbl>
##  1 Switze… Weste…       1    7.59  0.0341    1.40   1.35   0.941   0.666   0.420
##  2 Iceland Weste…       2    7.56  0.0488    1.30   1.40   0.948   0.629   0.141
##  3 Denmark Weste…       3    7.53  0.0333    1.33   1.36   0.875   0.649   0.484
##  4 Norway  Weste…       4    7.52  0.0388    1.46   1.33   0.885   0.670   0.365
##  5 Finland Weste…       6    7.41  0.0314    1.29   1.32   0.889   0.642   0.414
##  6 Nether… Weste…       7    7.38  0.0280    1.33   1.28   0.893   0.616   0.318
##  7 Sweden  Weste…       8    7.36  0.0316    1.33   1.29   0.911   0.660   0.438
##  8 Austria Weste…      13    7.2   0.0375    1.34   1.30   0.890   0.624   0.187
##  9 Luxemb… Weste…      17    6.95  0.0350    1.56   1.22   0.919   0.616   0.378
## 10 Ireland Weste…      18    6.94  0.0368    1.34   1.37   0.895   0.618   0.287
## # … with 11 more rows, 2 more variables: generosity <dbl>,
## #   dystopia_residual <dbl>, and abbreviated variable names ¹​happiness_rank,
## #   ²​happiness_score, ³​standard_error, ⁴​economy_gdp_per_capita,
## #   ⁵​health_life_expectancy, ⁶​trust_government_corruption
```
…
You can also use `slice_head` and `slice_tail` to select the first or last rows respectively. Or `slice_sample` to randomly draw n rows.

]

.panel[.panel-name[Select]

`Select`: allows you to select specific columns.

```r
whr15 %>% 
  select(region, country, happiness_rank)
```

```
## # A tibble: 158 × 3
##    region                    country     happiness_rank
##    <chr>                     <chr>                <dbl>
##  1 Western Europe            Switzerland              1
##  2 Western Europe            Iceland                  2
##  3 Western Europe            Denmark                  3
##  4 Western Europe            Norway                   4
##  5 North America             Canada                   5
##  6 Western Europe            Finland                  6
##  7 Western Europe            Netherlands              7
##  8 Western Europe            Sweden                   8
##  9 Australia and New Zealand New Zealand              9
## 10 Australia and New Zealand Australia               10
## # … with 148 more rows
```
…
