Session 1 - Introduction to R
…
# Data in R 

## Storing results in R

There is an important difference between using `<-` and not using it

- Not using `<-` **simply displays the result** in the console. The input dataframe will remain unchanged and the result **will not be stored**

``` r
subset(department_staff_list, sex == "Female")
```

```
## # A tibble: 3,572 × 7
##    sex    current_grade               date_of_birth       date_of_first_appoin…¹
##    <chr>  <chr>                       <dttm>              <dttm>                
##  1 Female Director Fin. & Admin.      1964-09-25 00:00:00 1994-08-31 00:00:00   
##  2 Female Chief Exe. Officer          1965-06-15 00:00:00 1990-12-01 00:00:00   
##  3 Female Senior Records Officer      1974-04-29 00:00:00 2013-05-01 00:00:00   
##  4 Female Senior Procurement/supply … 1973-08-08 00:00:00 2003-09-15 00:00:00   
##  5 Female Snr. Private Secretary      1979-08-29 00:00:00 2002-01-07 00:00:00   
##  6 Female Private Secretary           1982-12-26 00:00:00 2003-03-12 00:00:00   
##  7 Female Private  Secretary          1986-02-13 00:00:00 2019-10-30 00:00:00   
##  8 Female Stenographer Gd I           1986-11-14 00:00:00 2008-08-20 00:00:00   
##  9 Female Records Officer             1981-06-17 00:00:00 2018-06-16 00:00:00   
## 10 Female Principal Exe. Officer      1979-11-20 00:00:00 2019-12-23 00:00:00   
## # ℹ 3,562 more rows
## # ℹ abbreviated name: ¹​date_of_first_appointment
## # ℹ 3 more variables: senior_junior_staff <chr>, department <chr>,
## #   years_of_service <dbl>
```
…
