Session 2 - Data wrangling
…
``` r
temp1 <- group_by(department_staff_list, department)
employees_by_department <- summarise(temp1, number = n())
```

---
# Grouping and summarizing 

## Government analytics request

This will create the following dataframe/table:

```
## # A tibble: 23 × 2
##    department                      number
##    <chr>                            <int>
##  1 Births & Deaths                    172
##  2 Bureau of Languages                 58
##  3 Co-operatives                      293
##  4 Controller & Accountant General   3776
##  5 Department of Comm Devt            109
##  6 Dept of Children                   101
##  7 Dept of Gender                     100
##  8 Dept of Labour                     290
##  9 Factories Inspectorate             121
## 10 Feeder Roads                       102
## # ℹ 13 more rows
```
…
